aes_1205/fpga_top_tb.vcd
$date
	Thu Dec  5 15:18:53 2019
$end
$version
	Icarus Verilog
$end
$timescale
	1ps
$end
$scope module fpga_top_tb $end
$var wire 1 ! w_uart_tx $end
$var reg 1 " r_clock $end
$scope module fpga_top $end
$var wire 1 # BUTTON_C $end
$var wire 8 $ LED [7:0] $end
$var wire 1 % LED_C $end
$var wire 1 & LED_E $end
$var wire 1 ' LED_N $end
$var wire 1 ( LED_S $end
$var wire 1 ) LED_W $end
$var wire 1 " clk $end
$var wire 1 * rst_n $end
$var wire 1 ! uart_tx $end
$var wire 1 + uart_we $end
$var wire 1 , w_is_done $end
$var wire 128 - w_cipher [0:127] $end
$var wire 1 . uart_busy $end
$var wire 1 / uart_OUT_data $end
$var reg 3 0 counter [2:0] $end
$var reg 1 1 r_LED_C $end
$var reg 1 2 r_LED_E $end
$var reg 1 3 r_LED_S $end
$var reg 1 4 r_LED_W $end
$var reg 128 5 r_key [0:127] $end
$var reg 128 6 r_plain [0:127] $end
$var reg 1 7 r_rst_sm $end
$var reg 3 8 r_sm_main [2:0] $end
$var reg 8 9 r_tx_byte [7:0] $end
$var reg 1 : r_uart_we $end
$scope module aes_top $end
$var wire 1 " i_clock $end
$var wire 128 ; i_key [0:127] $end
$var wire 128 < i_plain [0:127] $end
$var wire 128 = o_cipher [0:127] $end
$var wire 1 , o_is_done $end
$var wire 8 > state_0 [0:7] $end
$var wire 8 ? state_1 [0:7] $end
$var wire 8 @ state_10 [0:7] $end
$var wire 8 A state_11 [0:7] $end
$var wire 8 B state_12 [0:7] $end
$var wire 8 C state_13 [0:7] $end
$var wire 8 D state_14 [0:7] $end
$var wire 8 E state_15 [0:7] $end
$var wire 8 F state_2 [0:7] $end
$var wire 8 G state_3 [0:7] $end
$var wire 8 H state_4 [0:7] $end
$var wire 8 I state_5 [0:7] $end
$var wire 8 J state_6 [0:7] $end
$var wire 8 K state_7 [0:7] $end
$var wire 8 L state_8 [0:7] $end
$var wire 8 M state_9 [0:7] $end
$var wire 32 N w_key3_next [0:31] $end
$var wire 32 O w_key2_next [0:31] $end
$var wire 32 P w_key1_next [0:31] $end
$var wire 32 Q w_key0_next [0:31] $end
$var wire 128 R w_data_o_sub_byte [0:127] $end
$var wire 128 S w_data_o_shift_rows [0:127] $end
$var wire 128 T w_data_o_mix_columns [0:127] $end
$var wire 128 U w_data_o_add_round_key [0:127] $end
$var reg 3 V clock_counter [0:2] $end
$var reg 1 W r_add_round_key_active $end
$var reg 1 X r_create_round_key_active $end
$var reg 128 Y r_data [0:127] $end
$var reg 1 Z r_is_done $end
$var reg 32 [ r_key0 [0:31] $end
$var reg 32 \ r_key1 [0:31] $end
$var reg 32 ] r_key2 [0:31] $end
$var reg 32 ^ r_key3 [0:31] $end
$var reg 1 _ r_mix_columns_active $end
$var reg 5 ` r_round_num [0:4] $end
$var reg 1 a r_shift_rows_active $end
$var reg 5 b r_sm_main [4:0] $end
$var reg 1 c r_sub_bytes_active $end
$scope module add_round_key $end
$var wire 1 W i_active $end
$var wire 1 " i_clock $end
$var wire 128 d i_data [0:127] $end
$var wire 32 e i_key0 [0:31] $end
$var wire 32 f i_key1 [0:31] $end
$var wire 32 g i_key2 [0:31] $end
$var wire 32 h i_key3 [0:31] $end
$var wire 128 i o_data [0:127] $end
$var reg 128 j r_data [0:127] $end
$scope function roundkey $end
$var reg 128 k data [0:127] $end
$var reg 32 l key0 [0:31] $end
$var reg 32 m key1 [0:31] $end
$var reg 32 n key2 [0:31] $end
$var reg 32 o key3 [0:31] $end
$var reg 128 p roundkey [0:127] $end
$var reg 32 q w0 [0:31] $end
$var reg 32 r w1 [0:31] $end
$var reg 32 s w2 [0:31] $end
$var reg 32 t w3 [0:31] $end
$var reg 32 u ws0 [0:31] $end
$var reg 32 v ws1 [0:31] $end
$var reg 32 w ws2 [0:31] $end
$var reg 32 x ws3 [0:31] $end
$upscope $end
$scope function roundkeyw $end
$var reg 32 y key [31:0] $end
$var reg 32 z roundkeyw [31:0] $end
$var reg 32 { w [31:0] $end
$upscope $end
$upscope $end
$scope module create_round_key $end
$var wire 1 X i_active $end
$var wire 1 " i_clock $end
$var wire 128 | i_data [0:127] $end
$var wire 32 } i_key0 [0:31] $end
$var wire 32 ~ i_key1 [0:31] $end
$var wire 32 !" i_key2 [0:31] $end
$var wire 32 "" i_key3 [0:31] $end
$var wire 5 #" i_round_num [0:4] $end
$var wire 32 $" o_key0 [0:31] $end
$var wire 32 %" o_key1 [0:31] $end
$var wire 32 &" o_key2 [0:31] $end
$var wire 32 '" o_key3 [0:31] $end
$var reg 32 (" r_key0 [0:31] $end
$var reg 32 )" r_key1 [0:31] $end
$var reg 32 *" r_key2 [0:31] $end
$var reg 32 +" r_key3 [0:31] $end
$var reg 3 ," r_sm_main [2:0] $end
$scope function rotword $end
$var reg 8 -" b0 [0:7] $end
$var reg 8 ." b1 [0:7] $end
$var reg 8 /" b2 [0:7] $end
$var reg 8 0" b3 [0:7] $end
$var reg 8 1" bs0 [0:7] $end
$var reg 8 2" bs1 [0:7] $end
$var reg 8 3" bs2 [0:7] $end
$var reg 8 4" bs3 [0:7] $end
$var reg 32 5" rotword [0:31] $end
$var reg 32 6" w [0:31] $end
$upscope $end
$scope function roundkey $end
$var reg 1 7" is_r_key0 $end
$var reg 32 8" key_4 [0:31] $end
$var reg 5 9" round_num [0:4] $end
$var reg 128 :" roundkey [0:127] $end
$var reg 32 ;" temp [0:31] $end
$var reg 32 <" temp2 [0:31] $end
$upscope $end
$scope function subword $end
$var reg 8 =" b0 [0:7] $end
$var reg 8 >" b1 [0:7] $end
$var reg 8 ?" b2 [0:7] $end
$var reg 8 @" b3 [0:7] $end
$var reg 8 A" bs0 [0:7] $end
$var reg 8 B" bs1 [0:7] $end
$var reg 8 C" bs2 [0:7] $end
$var reg 8 D" bs3 [0:7] $end
$var reg 32 E" subword [0:31] $end
$var reg 32 F" w [0:31] $end
$upscope $end
$upscope $end
$scope module mix_columns $end
$var wire 1 _ i_active $end
$var wire 1 " i_clock $end
$var wire 128 G" i_data [0:127] $end
$var wire 128 H" o_data [0:127] $end
$var reg 128 I" r_data [0:127] $end
$scope function gm2 $end
$var reg 8 J" gm2 [7:0] $end
$var reg 8 K" op [7:0] $end
$upscope $end
$scope function gm3 $end
$var reg 8 L" gm3 [7:0] $end
$var reg 8 M" op [7:0] $end
$upscope $end
$scope function mixcolumns $end
$var reg 128 N" data [127:0] $end
$var reg 128 O" mixcolumns [127:0] $end
$var reg 32 P" w0 [31:0] $end
$var reg 32 Q" w1 [31:0] $end
$var reg 32 R" w2 [31:0] $end
$var reg 32 S" w3 [31:0] $end
$var reg 32 T" ws0 [31:0] $end
$var reg 32 U" ws1 [31:0] $end
$var reg 32 V" ws2 [31:0] $end
$var reg 32 W" ws3 [31:0] $end
$upscope $end
$scope function mixw $end
$var reg 8 X" b0 [7:0] $end
$var reg 8 Y" b1 [7:0] $end
$var reg 8 Z" b2 [7:0] $end
$var reg 8 [" b3 [7:0] $end
$var reg 8 \" mb0 [7:0] $end
$var reg 8 ]" mb1 [7:0] $end
$var reg 8 ^" mb2 [7:0] $end
$var reg 8 _" mb3 [7:0] $end
$var reg 32 `" mixw [31:0] $end
$var reg 32 a" w [31:0] $end
$upscope $end
$upscope $end
$scope module shift_rows $end
$var wire 1 a i_active $end
$var wire 1 " i_clock $end
$var wire 128 b" i_data [0:127] $end
$var wire 128 c" o_data [0:127] $end
$var reg 128 d" r_data [0:127] $end
$upscope $end
$scope module sub_bytes $end
$var wire 1 c i_active $end
$var wire 1 " i_clock $end
$var wire 128 e" i_data [0:127] $end
$var wire 128 f" o_data [0:127] $end
$var reg 128 g" r_data [0:127] $end
$upscope $end
$upscope $end
$scope module uart0 $end
$var wire 1 h" ser_clk $end
$var wire 1 " sys_clk_i $end
$var wire 1 * sys_rstn_i $end
$var wire 8 i" uart_dat_i [7:0] $end
$var wire 1 + uart_wr_i $end
$var wire 1 . uart_busy $end
$var wire 1 j" sending $end
$var wire 29 k" dNxt [28:0] $end
$var wire 29 l" dInc [28:0] $end
$var reg 4 m" bitcount [3:0] $end
$var reg 29 n" d [28:0] $end
$var reg 9 o" shifter [8:0] $end
$var reg 1 / uart_tx $end
$upscope $end
$upscope $end
$upscope $end
$enddefinitions $end
#0
$dumpvars
bx o"
bx n"
bx m"
bx0x00000x0x111x000xx00000000 l"
bx k"
xj"
bx i"
xh"
bx g"
bx f"
b0 e"
bx d"
bx c"
b0 b"
bx a"
bx `"
bx _"
bx ^"
bx ]"
bx \"
bx ["
bx Z"
bx Y"
bx X"
bx W"
bx V"
bx U"
bx T"
bx S"
bx R"
bx Q"
bx P"
bx O"
bx N"
bx M"
bx L"
bx K"
bx J"
bx I"
bx H"
b0 G"
bx F"
bx E"
bx D"
bx C"
bx B"
bx A"
bx @"
bx ?"
bx >"
bx ="
bx <"
bx ;"
bx :"
bx 9"
bx 8"
x7"
bx 6"
bx 5"
bx 4"
bx 3"
bx 2"
bx 1"
bx 0"
bx /"
bx ."
bx -"
b0 ,"
bx +"
bx *"
bx )"
bx ("
bx '"
bx &"
bx %"
bx $"
b0 #"
b1001110011110100111100111100 ""
b10101011111101110001010110001000 !"
b101000101011101101001010100110 ~
b101011011111100001010100010110 }
b0 |
bx {
bx z
bx y
bx x
bx w
bx v
bx u
bx t
bx s
bx r
bx q
bx p
bx o
bx n
bx m
bx l
bx k
bx j
bx i
b1001110011110100111100111100 h
b10101011111101110001010110001000 g
b101000101011101101001010100110 f
b101011011111100001010100010110 e
b0 d
0c
b0 b
0a
b0 `
0_
b1001110011110100111100111100 ^
b10101011111101110001010110001000 ]
b101000101011101101001010100110 \
b101011011111100001010100010110 [
0Z
b0 Y
0X
0W
b0 V
bx U
bx T
bx S
bx R
bx Q
bx P
bx O
bx N
b0 M
b0 L
b0 K
b0 J
b0 I
b0 H
b0 G
b0 F
b0 E
b0 D
b0 C
b0 B
b0 A
b0 @
b0 ?
b0 >
b0 =
b110010010000111111011010101000100010000101101000110000100011010011000100110001100110001010001011100000001101110000011100110100 <
b101011011111100001010100010110001010001010111011010010101001101010101111110111000101011000100000001001110011110100111100111100 ;
x:
bx 9
b0 8
07
b110010010000111111011010101000100010000101101000110000100011010011000100110001100110001010001011100000001101110000011100110100 6
b101011011111100001010100010110001010001010111011010010101001101010101111110111000101011000100000001001110011110100111100111100 5
04
03
02
01
b0 0
x/
x.
b0 -
0,
x+
z*
0)
0(
z'
0&
0%
bx $
z#
0"
x!
$end
#50000
b1 b
1)
14
1"
#100000
0"
#150000
b110100 E
b111 D
b110111 C
b11100000 B
b10100010 A
b10011000 @
b110001 M
b110001 L
b10001101 K
b110000 J
b1011010 I
b10001000 H
b10101000 G
b11110110 F
b1000011 ?
b110010 >
b10 b
b110010010000111111011010101000100010000101101000110000100011010011000100110001100110001010001011100000001101110000011100110100 -
b110010010000111111011010101000100010000101101000110000100011010011000100110001100110001010001011100000001101110000011100110100 =
b110010010000111111011010101000100010000101101000110000100011010011000100110001100110001010001011100000001101110000011100110100 Y
b110010010000111111011010101000100010000101101000110000100011010011000100110001100110001010001011100000001101110000011100110100 d
b110010010000111111011010101000100010000101101000110000100011010011000100110001100110001010001011100000001101110000011100110100 |
b110010010000111111011010101000100010000101101000110000100011010011000100110001100110001010001011100000001101110000011100110100 G"
b110010010000111111011010101000100010000101101000110000100011010011000100110001100110001010001011100000001101110000011100110100 b"
b110010010000111111011010101000100010000101101000110000100011010011000100110001100110001010001011100000001101110000011100110100 e"
1"
#200000
0"
#250000
1W
b1 V
1"
#300000
0"
#350000
b11001001111011110001110111110101000001111010011100010001010111001101011000110100011010010101011101001111110000100100000001000 U
b11001001111011110001110111110101000001111010011100010001010111001101011000110100011010010101011101001111110000100100000001000 i
b11001001111011110001110111110101000001111010011100010001010111001101011000110100011010010101011101001111110000100100000001000 j
b10 V
b11001001111011110001110111110101000001111010011100010001010111001101011000110100011010010101011101001111110000100100000001000 p
b11101001111110000100100000001000 x
b10011010110001101000110100101010 w
b10100000111101001110001000101011 v
b11001001111011110001110111110 u
b11101001111110000100100000001000 z
b11100000001101110000011100110100 {
b1001110011110100111100111100 y
b11100000001101110000011100110100 t
b110001001100011001100010100010 s
b10001000010110100011000010001101 r
b110010010000111111011010101000 q
b110010010000111111011010101000100010000101101000110000100011010011000100110001100110001010001011100000001101110000011100110100 k
b101011011111100001010100010110 l
b101000101011101101001010100110 m
b10101011111101110001010110001000 n
b1001110011110100111100111100 o
1"
#400000
0"
#450000
b1000 E
b1001000 D
b11111000 C
b11101001 B
b101010 A
b10001101 @
b11000110 M
b10011010 L
b101011 K
b11100010 J
b11110100 I
b10100000 H
b10111110 G
b11100011 F
b111101 ?
b11001 >
b11 b
0W
b11001001111011110001110111110101000001111010011100010001010111001101011000110100011010010101011101001111110000100100000001000 -
b11001001111011110001110111110101000001111010011100010001010111001101011000110100011010010101011101001111110000100100000001000 =
b11001001111011110001110111110101000001111010011100010001010111001101011000110100011010010101011101001111110000100100000001000 Y
b11001001111011110001110111110101000001111010011100010001010111001101011000110100011010010101011101001111110000100100000001000 d
b11001001111011110001110111110101000001111010011100010001010111001101011000110100011010010101011101001111110000100100000001000 |
b11001001111011110001110111110101000001111010011100010001010111001101011000110100011010010101011101001111110000100100000001000 G"
b11001001111011110001110111110101000001111010011100010001010111001101011000110100011010010101011101001111110000100100000001000 b"
b11001001111011110001110111110101000001111010011100010001010111001101011000110100011010010101011101001111110000100100000001000 e"
b11101001111110000100100000001000 z
b11100000001101110000011100110100 {
b1001110011110100111100111100 y
b0 V
1"
#500000
0"
#550000
1c
b1 V
1"
#600000
0"
#650000
b11010100001001110001000110101110111000001011111110011000111100011011100010110100010111011110010100011110010000010101001000110000 R
b11010100001001110001000110101110111000001011111110011000111100011011100010110100010111011110010100011110010000010101001000110000 f"
b11010100001001110001000110101110111000001011111110011000111100011011100010110100010111011110010100011110010000010101001000110000 g"
b10 V
1"
#700000
0"
#750000
b110000 E
b1010010 D
b1000001 C
b11110 B
b11100101 A
b1011101 @
b10110100 M
b10111000 L
b11110001 K
b10011000 J
b10111111 I
b11100000 H
b10101110 G
b10001 F
b100111 ?
b11010100 >
b100 b
0c
b11010100001001110001000110101110111000001011111110011000111100011011100010110100010111011110010100011110010000010101001000110000 -
b11010100001001110001000110101110111000001011111110011000111100011011100010110100010111011110010100011110010000010101001000110000 =
b11010100001001110001000110101110111000001011111110011000111100011011100010110100010111011110010100011110010000010101001000110000 Y
b11010100001001110001000110101110111000001011111110011000111100011011100010110100010111011110010100011110010000010101001000110000 d
b11010100001001110001000110101110111000001011111110011000111100011011100010110100010111011110010100011110010000010101001000110000 |
b11010100001001110001000110101110111000001011111110011000111100011011100010110100010111011110010100011110010000010101001000110000 G"
b11010100001001110001000110101110111000001011111110011000111100011011100010110100010111011110010100011110010000010101001000110000 b"
b11010100001001110001000110101110111000001011111110011000111100011011100010110100010111011110010100011110010000010101001000110000 e"
b0 V
1"
#800000
0"
#850000
1a
b1 V
1"
#900000
0"
#950000
b11010100101111110101110100110000111000001011010001010010101011101011100001000001000100011111000100011110001001111001100011100101 S
b11010100101111110101110100110000111000001011010001010010101011101011100001000001000100011111000100011110001001111001100011100101 c"
b11010100101111110101110100110000111000001011010001010010101011101011100001000001000100011111000100011110001001111001100011100101 d"
b10 V
1"
#1000000
0"
#1050000
b11100101 E
b10011000 D
b100111 C
b11110001 A
b10001 @
b1000001 M
b10101110 K
b1010010 J
b10110100 I
b110000 G
b1011101 F
b10111111 ?
b101 b
0a
b11010100101111110101110100110000111000001011010001010010101011101011100001000001000100011111000100011110001001111001100011100101 -
b11010100101111110101110100110000111000001011010001010010101011101011100001000001000100011111000100011110001001111001100011100101 =
b11010100101111110101110100110000111000001011010001010010101011101011100001000001000100011111000100011110001001111001100011100101 Y
b11010100101111110101110100110000111000001011010001010010101011101011100001000001000100011111000100011110001001111001100011100101 d
b11010100101111110101110100110000111000001011010001010010101011101011100001000001000100011111000100011110001001111001100011100101 |
b11010100101111110101110100110000111000001011010001010010101011101011100001000001000100011111000100011110001001111001100011100101 G"
b11010100101111110101110100110000111000001011010001010010101011101011100001000001000100011111000100011110001001111001100011100101 b"
b11010100101111110101110100110000111000001011010001010010101011101011100001000001000100011111000100011110001001111001100011100101 e"
b0 V
1"
#1100000
0"
#1150000
1_
b1 V
1"
#1200000
0"
#1250000
b100011001101000000111100101111000001100101100011001100110100100100011111000110100110111101000101000000001100010011001001100 T
b100011001101000000111100101111000001100101100011001100110100100100011111000110100110111101000101000000001100010011001001100 H"
b100011001101000000111100101111000001100101100011001100110100100100011111000110100110111101000101000000001100010011001001100 I"
b100011001101000000111100101111000001100101100011001100110100100100011111000110100110111101000101000000001100010011001001100 O"
b101000000001100010011001001100 W"
b1001000111110001101001101111010 V"
b11100000110010110001100110011010 U"
b100011001101000000111100101 T"
b101000000001100010011001001100 `"
b1001100 _"
b100110 ^"
b110 ]"
b101000 \"
b100010 L"
b11110 M"
b11010001 J"
b11100101 K"
b11100101 ["
b10011000 Z"
b100111 Y"
b11110 X"
b11110001001111001100011100101 a"
b11110001001111001100011100101 S"
b10111000010000010001000111110001 R"
b11100000101101000101001010101110 Q"
b11010100101111110101110100110000 P"
b11010100101111110101110100110000111000001011010001010010101011101011100001000001000100011111000100011110001001111001100011100101 N"
b10 V
1"
#1300000
0"
#1350000
b1001100 E
b100110 D
b110 C
b101000 B
b1111010 A
b11010011 @
b11111000 M
b1001000 L
b10011010 K
b11001 J
b11001011 I
b11100101 G
b10000001 F
b1100110 ?
b100 >
b110 b
0_
b100011001101000000111100101111000001100101100011001100110100100100011111000110100110111101000101000000001100010011001001100 -
b100011001101000000111100101111000001100101100011001100110100100100011111000110100110111101000101000000001100010011001001100 =
b100011001101000000111100101111000001100101100011001100110100100100011111000110100110111101000101000000001100010011001001100 Y
b100011001101000000111100101111000001100101100011001100110100100100011111000110100110111101000101000000001100010011001001100 d
b100011001101000000111100101111000001100101100011001100110100100100011111000110100110111101000101000000001100010011001001100 |
b100011001101000000111100101111000001100101100011001100110100100100011111000110100110111101000101000000001100010011001001100 G"
b100011001101000000111100101111000001100101100011001100110100100100011111000110100110111101000101000000001100010011001001100 b"
b100011001101000000111100101111000001100101100011001100110100100100011111000110100110111101000101000000001100010011001001100 e"
b0 V
b101000000001100010011001001100 `"
b1001100 _"
b100110 ^"
b110 ]"
b101000 \"
b100010 L"
b11110 M"
b11010001 J"
b11100101 K"
b11100101 ["
b10011000 Z"
b100111 Y"
b11110 X"
b11110001001111001100011100101 a"
1"
#1400000
0"
#1450000
1X
b1 V
1"
#1500000
0"
#1550000
b1 ,"
b10100000111110101111111000010111 Q
b10100000111110101111111000010111 $"
b10100000111110101111111000010111 ("
b10 V
b10100000111110101111111000010111 :"
b10001011100001001110101100000001 <"
b10001010100001001110101100000001 E"
b1 D"
b11101011 C"
b10000100 B"
b10001010 A"
b1001 @"
b111100 ?"
b1001111 >"
b11001111 ="
b11001111010011110011110000001001 F"
b11001111010011110011110000001001 5"
b1001 4"
b111100 3"
b1001111 2"
b11001111 1"
b111100 0"
b1001111 /"
b11001111 ."
b1001 -"
b1001110011110100111100111100 6"
b1001110011110100111100111100 ;"
b101011011111100001010100010110 8"
b0 9"
17"
1"
#1600000
0"
#1650000
b10 ,"
b10001000010101000010110010110001 P
b10001000010101000010110010110001 %"
b10001000010101000010110010110001 )"
b10001000010101000010110010110001 :"
b10100000111110101111111000010111 ;"
b101000101011101101001010100110 8"
07"
b11 V
1"
#1700000
0"
#1750000
b11 ,"
b100011101000110011100100111001 O
b100011101000110011100100111001 &"
b100011101000110011100100111001 *"
b100 V
b100011101000110011100100111001 :"
b10001000010101000010110010110001 ;"
b10101011111101110001010110001000 8"
1"
#1800000
0"
#1850000
b0 ,"
b101010011011000111011000000101 N
b101010011011000111011000000101 '"
b101010011011000111011000000101 +"
b111 b
0X
b101010011011000111011000000101 :"
b100011101000110011100100111001 ;"
b1001110011110100111100111100 8"
b0 V
1"
#1900000
0"
#1950000
b1000 b
b101010011011000111011000000101 ^
b101010011011000111011000000101 h
b101010011011000111011000000101 ""
b100011101000110011100100111001 ]
b100011101000110011100100111001 g
b100011101000110011100100111001 !"
b10001000010101000010110010110001 \
b10001000010101000010110010110001 f
b10001000010101000010110010110001 ~
b10100000111110101111111000010111 [
b10100000111110101111111000010111 e
b10100000111110101111111000010111 }
1"
#2000000
0"
#2050000
1W
b1 V
1"
#2100000
0"
#2150000
b10100100100111000111111111110010011010001001111100110101001010110110101101011011111010100100001100000010011010100101000001001001 U
b10100100100111000111111111110010011010001001111100110101001010110110101101011011111010100100001100000010011010100101000001001001 i
b10100100100111000111111111110010011010001001111100110101001010110110101101011011111010100100001100000010011010100101000001001001 j
b10 V
b10100100100111000111111111110010011010001001111100110101001010110110101101011011111010100100001100000010011010100101000001001001 p
b10011010100101000001001001 x
b1101011010110111110101001000011 w
b1101000100111110011010100101011 v
b10100100100111000111111111110010 u
b10011010100101000001001001 z
b101000000001100010011001001100 {
b101010011011000111011000000101 y
b101000000001100010011001001100 t
b1001000111110001101001101111010 s
b11100000110010110001100110011010 r
b100011001101000000111100101 q
b100011001101000000111100101111000001100101100011001100110100100100011111000110100110111101000101000000001100010011001001100 k
b10100000111110101111111000010111 l
b10001000010101000010110010110001 m
b100011101000110011100100111001 n
b101010011011000111011000000101 o
1"
#2200000
0"
#2250000
b1001001 E
b1010000 D
b1101010 C
b10 B
b1000011 A
b11101010 @
b1011011 M
b1101011 L
b101011 K
b110101 J
b10011111 I
b1101000 H
b11110010 G
b1111111 F
b10011100 ?
b10100100 >
b11 b
b1 `
b1 #"
0W
b10100100100111000111111111110010011010001001111100110101001010110110101101011011111010100100001100000010011010100101000001001001 -
b10100100100111000111111111110010011010001001111100110101001010110110101101011011111010100100001100000010011010100101000001001001 =
b10100100100111000111111111110010011010001001111100110101001010110110101101011011111010100100001100000010011010100101000001001001 Y
b10100100100111000111111111110010011010001001111100110101001010110110101101011011111010100100001100000010011010100101000001001001 d
b10100100100111000111111111110010011010001001111100110101001010110110101101011011111010100100001100000010011010100101000001001001 |
b10100100100111000111111111110010011010001001111100110101001010110110101101011011111010100100001100000010011010100101000001001001 G"
b10100100100111000111111111110010011010001001111100110101001010110110101101011011111010100100001100000010011010100101000001001001 b"
b10100100100111000111111111110010011010001001111100110101001010110110101101011011111010100100001100000010011010100101000001001001 e"
b10011010100101000001001001 z
b101000000001100010011001001100 {
b101010011011000111011000000101 y
b0 V
1"
#2300000
0"
#2350000
1c
b1 V
1"
#2400000
0"
#2450000
b1001001110111101101001010001001010001011101101110010110111100010111111100111001100001110001101001110111000000100101001100111011 R
b1001001110111101101001010001001010001011101101110010110111100010111111100111001100001110001101001110111000000100101001100111011 f"
b1001001110111101101001010001001010001011101101110010110111100010111111100111001100001110001101001110111000000100101001100111011 g"
b10 V
1"
#2500000
0"
#2550000
b111011 E
b1010011 D
b10 C
b1110111 B
b11010 A
b10000111 @
b111001 M
b1111111 L
b11110001 K
b10010110 J
b11011011 I
b1000101 H
b10001001 G
b11010010 F
b11011110 ?
b1001001 >
b100 b
0c
b1001001110111101101001010001001010001011101101110010110111100010111111100111001100001110001101001110111000000100101001100111011 -
b1001001110111101101001010001001010001011101101110010110111100010111111100111001100001110001101001110111000000100101001100111011 =
b1001001110111101101001010001001010001011101101110010110111100010111111100111001100001110001101001110111000000100101001100111011 Y
b1001001110111101101001010001001010001011101101110010110111100010111111100111001100001110001101001110111000000100101001100111011 d
b1001001110111101101001010001001010001011101101110010110111100010111111100111001100001110001101001110111000000100101001100111011 |
b1001001110111101101001010001001010001011101101110010110111100010111111100111001100001110001101001110111000000100101001100111011 G"
b1001001110111101101001010001001010001011101101110010110111100010111111100111001100001110001101001110111000000100101001100111011 b"
b1001001110111101101001010001001010001011101101110010110111100010111111100111001100001110001101001110111000000100101001100111011 e"
b0 V
1"
#2600000
0"
#2650000
1a
b1 V
1"
#2700000
0"
#2750000
b1001001110110111000011100111011010001010011100101010011100010010111111100000010110100101111000101110111110111101001011000011010 S
b1001001110110111000011100111011010001010011100101010011100010010111111100000010110100101111000101110111110111101001011000011010 c"
b1001001110110111000011100111011010001010011100101010011100010010111111100000010110100101111000101110111110111101001011000011010 d"
b10 V
1"
#2800000
0"
#2850000
b11010 E
b10010110 D
b11011110 C
b11110001 A
b11010010 @
b10 M
b10001001 K
b1010011 J
b111001 I
b111011 G
b10000111 F
b11011011 ?
b101 b
0a
b1001001110110111000011100111011010001010011100101010011100010010111111100000010110100101111000101110111110111101001011000011010 -
b1001001110110111000011100111011010001010011100101010011100010010111111100000010110100101111000101110111110111101001011000011010 =
b1001001110110111000011100111011010001010011100101010011100010010111111100000010110100101111000101110111110111101001011000011010 Y
b1001001110110111000011100111011010001010011100101010011100010010111111100000010110100101111000101110111110111101001011000011010 d
b1001001110110111000011100111011010001010011100101010011100010010111111100000010110100101111000101110111110111101001011000011010 |
b1001001110110111000011100111011010001010011100101010011100010010111111100000010110100101111000101110111110111101001011000011010 G"
b1001001110110111000011100111011010001010011100101010011100010010111111100000010110100101111000101110111110111101001011000011010 b"
b1001001110110111000011100111011010001010011100101010011100010010111111100000010110100101111000101110111110111101001011000011010 e"
b0 V
1"
#2900000
0"
#2950000
1_
b1 V
1"
#3000000
0"
#3050000
b1011000010011011100101011110001000110110100101101011010101011001101101111100111110010101010100000011011011010111011000011100101 T
b1011000010011011100101011110001000110110100101101011010101011001101101111100111110010101010100000011011011010111011000011100101 H"
b1011000010011011100101011110001000110110100101101011010101011001101101111100111110010101010100000011011011010111011000011100101 I"
b1011000010011011100101011110001000110110100101101011010101011001101101111100111110010101010100000011011011010111011000011100101 O"
b11011011010111011000011100101 W"
b11011011111001111100101010101000 V"
b11011010010110101101010101100 U"
b1011000010011011100101011110001 T"
b11011011010111011000011100101 `"
b11100101 _"
b10110000 ^"
b1101011 ]"
b11011 \"
b10011001 L"
b1110111 M"
b110100 J"
b11010 K"
b11010 ["
b10010110 Z"
b11011110 Y"
b1110111 X"
b1110111110111101001011000011010 a"
b1110111110111101001011000011010 S"
b1111111000000101101001011110001 R"
b1000101001110010101001110001001 Q"
b1001001110110111000011100111011 P"
b1001001110110111000011100111011010001010011100101010011100010010111111100000010110100101111000101110111110111101001011000011010 N"
b10 V
1"
#3100000
0"
#3150000
b11100101 E
b10110000 D
b1101011 C
b11011 B
b10101000 A
b11001010 @
b11100111 M
b11011011 L
b10101100 K
b1011010 J
b1001011 I
b11011 H
b11110001 G
b11001010 F
b1001101 ?
b1011000 >
b110 b
0_
b1011000010011011100101011110001000110110100101101011010101011001101101111100111110010101010100000011011011010111011000011100101 -
b1011000010011011100101011110001000110110100101101011010101011001101101111100111110010101010100000011011011010111011000011100101 =
b1011000010011011100101011110001000110110100101101011010101011001101101111100111110010101010100000011011011010111011000011100101 Y
b1011000010011011100101011110001000110110100101101011010101011001101101111100111110010101010100000011011011010111011000011100101 d
b1011000010011011100101011110001000110110100101101011010101011001101101111100111110010101010100000011011011010111011000011100101 |
b1011000010011011100101011110001000110110100101101011010101011001101101111100111110010101010100000011011011010111011000011100101 G"
b1011000010011011100101011110001000110110100101101011010101011001101101111100111110010101010100000011011011010111011000011100101 b"
b1011000010011011100101011110001000110110100101101011010101011001101101111100111110010101010100000011011011010111011000011100101 e"
b0 V
b11011011010111011000011100101 `"
b11100101 _"
b10110000 ^"
b1101011 ]"
b11011 \"
b10011001 L"
b1110111 M"
b110100 J"
b11010 K"
b11010 ["
b10010110 Z"
b11011110 Y"
b1110111 X"
b1110111110111101001011000011010 a"
1"
#3200000
0"
#3250000
1X
b1 V
1"
#3300000
0"
#3350000
b1 ,"
b11110010110000101001010111110010 Q
b11110010110000101001010111110010 $"
b11110010110000101001010111110010 ("
b10 V
b11110010110000101001010111110010 :"
b1010010001110000110101111100101 <"
b1010000001110000110101111100101 E"
b11100101 D"
b1101011 C"
b111000 B"
b1010000 A"
b101010 @"
b101 ?"
b1110110 >"
b1101100 ="
b1101100011101100000010100101010 F"
b1101100011101100000010100101010 5"
b101010 4"
b101 3"
b1110110 2"
b1101100 1"
b101 0"
b1110110 /"
b1101100 ."
b101010 -"
b101010011011000111011000000101 6"
b101010011011000111011000000101 ;"
b10100000111110101111111000010111 8"
b1 9"
17"
1"
#3400000
0"
#3450000
b10 ,"
b1111010100101101011100101000011 P
b1111010100101101011100101000011 %"
b1111010100101101011100101000011 )"
b1111010100101101011100101000011 :"
b11110010110000101001010111110010 ;"
b10001000010101000010110010110001 8"
07"
b11 V
1"
#3500000
0"
#3550000
b11 ,"
b1011001001101011000000001111010 O
b1011001001101011000000001111010 &"
b1011001001101011000000001111010 *"
b100 V
b1011001001101011000000001111010 :"
b1111010100101101011100101000011 ;"
b100011101000110011100100111001 8"
1"
#3600000
0"
#3650000
b0 ,"
b1110011010110011111011001111111 N
b1110011010110011111011001111111 '"
b1110011010110011111011001111111 +"
b111 b
0X
b1110011010110011111011001111111 :"
b1011001001101011000000001111010 ;"
b101010011011000111011000000101 8"
b0 V
1"
#3700000
0"
#3750000
b1000 b
b1110011010110011111011001111111 ^
b1110011010110011111011001111111 h
b1110011010110011111011001111111 ""
b1011001001101011000000001111010 ]
b1011001001101011000000001111010 g
b1011001001101011000000001111010 !"
b1111010100101101011100101000011 \
b1111010100101101011100101000011 f
b1111010100101101011100101000011 ~
b11110010110000101001010111110010 [
b11110010110000101001010111110010 e
b11110010110000101001010111110010 }
1"
#3800000
0"
#3850000
1W
b1 V
1"
#3900000
0"
